{
  "characters": [
    {
      "Howard the Duck": [
        {
          "name": "Interplanetary Visitor",
          "url": "https://marveldbg.files.wordpress.com/2019/06/howard_01.png",
          "team": "",
          "class": "Tech",
          "cost": 7,
          "attack": 4,
          "recruit": 0,
          "text": "Reveal the top three cards of your deck. Draw one of them, discard one, and KO one."
        },
        {
          "name": "Right Place, Wrong Time",
          "url": "https://marveldbg.files.wordpress.com/2019/06/howard_02.png",
          "team": "",
          "class": "Instinct",
          "cost": 5,
          "attack": 3,
          "recruit": 0,
          "text": "You get +1 Strike for each other Hero you played this turn with no team icon."
        },
        {
          "name": "Revel Without a Cause",
          "url": "https://marveldbg.files.wordpress.com/2019/06/howard_03.png",
          "team": "",
          "class": "Covert",
          "cost": 4,
          "attack": 2,
          "recruit": 0,
          "text": "Reveal the top card of your deck. If it costs 0 or has no team icon, draw it."
        },
        {
          "name": "Traveling Companion",
          "url": "https://marveldbg.files.wordpress.com/2019/06/howard_04.png",
          "team": "",
          "class": "Instinct",
          "cost": 3,
          "attack": 0,
          "recruit": 2,
          "text": "Reveal the top card of the Bystander Deck. If it's a Special Bystander, rescue it. Otherwise, put it on the bottom of that deck."
        }
      ]
    },
    {
      "Jessica Jones": [
        {
          "name": "Uncover Hidden Evil",
          "url": "https://marveldbg.files.wordpress.com/2019/06/jessica_01.png",
          "team": "Marvel Knights",
          "class": "Covert",
          "cost": 7,
          "attack": 4,
          "recruit": 0,
          "text": "Covert: Investigate the Villain Deck for a Villain. You may put in into your Victory Pile and do its Fight effect. Otherwise, put it back on the top or bottom of that deck."
        },
        {
          "name": "Crack the Case",
          "url": "https://marveldbg.files.wordpress.com/2019/06/jessica_02.png",
          "team": "Marvel Knights",
          "class": "Strength",
          "cost": 5,
          "attack": 0,
          "recruit": 3,
          "text": "Switcheroo 6. Investigate for a card with a Recruit icon. You may draw that card or KO it."
        },
        {
          "name": "Alias Investigations",
          "url": "https://marveldbg.files.wordpress.com/2019/06/jessica_03.png",
          "team": "Marvel Knights",
          "class": "Covert",
          "cost": 4,
          "attack": 1,
          "recruit": 0,
          "text": "Switcheroo 5. Investigate for a card with a Strike icon."
        },
        {
          "name": "Alter Ego",
          "url": "https://marveldbg.files.wordpress.com/2019/06/jessica_04.png",
          "team": "Marvel Knights",
          "class": "Strength",
          "cost": 3,
          "attack": 2,
          "recruit": 0,
          "text": "Switcheroo 4."
        }
      ]
    },
    {
      "Man-Thing": [
        {
          "name": "Eternity of Solitude",
          "url": "https://marveldbg.files.wordpress.com/2019/06/man_thing_01.png",
          "team": "",
          "class": "Strength",
          "cost": 7,
          "attack": 5,
          "recruit": 0,
          "text": "Strength: You get +1 Strike for each empty city space."
        },
        {
          "name": "Travel the Nexus of Realities",
          "url": "https://marveldbg.files.wordpress.com/2019/06/man_thing_02.png",
          "team": "",
          "class": "Covert",
          "cost": 5,
          "attack": 0,
          "recruit": 3,
          "text": "Teleport. You may move a Villain to another city space. If another Villain is already there, swap them."
        },
        {
          "name": "Burn the Fearful",
          "url": "https://marveldbg.files.wordpress.com/2019/06/man_thing_03.png",
          "team": "",
          "class": "Instinct",
          "cost": 4,
          "attack": 2,
          "recruit": 0,
          "text": "Choose a Villain or Mastermind. If there are no other Villains adjace to it, it gets -1 Strike this turn."
        },
        {
          "name": "Form From Ooze",
          "url": "https://marveldbg.files.wordpress.com/2019/06/man_thing_04.png",
          "team": "",
          "class": "Strength",
          "cost": 2,
          "attack": 0,
          "recruit": 0,
          "text": "Teleport. You get +2 Strike, usable only against Villains in the Sewers or the Mastermind."
        }
      ]
    },
    {
      "Ms. America": [
        {
          "name": "Hyper-Cosmic Awareness",
          "url": "https://marveldbg.files.wordpress.com/2019/06/ms_america_01.png",
          "team": "Avengers",
          "class": "Covert",
          "cost": 7,
          "attack": 0,
          "recruit": 0,
          "text": "You get +1 Strike for each other card in your hand."
        },
        {
          "name": "Kick a Hole in Reality",
          "url": "https://marveldbg.files.wordpress.com/2019/06/ms_america_02.png",
          "team": "Avengers",
          "class": "Strength",
          "cost": 6,
          "attack": 3,
          "recruit": 0,
          "text": "Strength: Reveal the top card of your deck. KO it or Teleport it."
        },
        {
          "name": "Search Parallel Dimensions",
          "url": "https://marveldbg.files.wordpress.com/2019/06/ms_america_03.png",
          "team": "Avengers",
          "class": "Ranged",
          "cost": 4,
          "attack": 0,
          "recruit": 2,
          "text": "Investigate for an Avengers card and Teleport that card."
        },
        {
          "name": "Star Power",
          "url": "https://marveldbg.files.wordpress.com/2019/06/ms_america_04.png",
          "team": "Avengers",
          "class": "Strength",
          "cost": 3,
          "attack": 1,
          "recruit": 0,
          "text": "Teleport. Strength: You get +2 Strike."
        }
      ]
    },
    {
      "Squirrel Girl": [
        {
          "name": "Unbeatable Squirrel Girl",
          "url": "https://marveldbg.files.wordpress.com/2019/06/squirrel_01.png",
          "team": "Avengers",
          "class": "Instinct",
          "cost": 8,
          "attack": 5,
          "recruit": 0,
          "text": "You may choose a number from 1 to 5. A Hero in your hand gains Switcheroo for that number. Instinct Instinct: You may choose a number from 1 to 8 instead."
        },
        {
          "name": "Squirrel Guilty",
          "url": "https://marveldbg.files.wordpress.com/2019/06/squirrel_02.png",
          "team": "Avengers",
          "class": "Covert",
          "cost": 4,
          "attack": 2,
          "recruit": 0,
          "text": "Switcheroo 5. You get +2 Strike if at least 2 cards entered the HQ this turn."
        },
        {
          "name": "Nut Punch",
          "url": "https://marveldbg.files.wordpress.com/2019/06/squirrel_03.png",
          "team": "Avengers",
          "class": "Instinct",
          "cost": 3,
          "attack": 1,
          "recruit": 0,
          "text": "Switcheroo 4. Instinct: You get +2 Strike."
        },
        {
          "name": "Find Tiny Friends",
          "url": "https://marveldbg.files.wordpress.com/2019/06/squirrel_04.png",
          "team": "Avengers",
          "class": "Instinct",
          "cost": 2,
          "attack": 0,
          "recruit": 0,
          "text": "Switcheroo 3. Investigate for a card that costs 3 or less."
        }
      ]
    }
  ]
}
