{
  "characters": [
    {
      "Adam Warlock": [
        {
          "name": "Manifest the Soul Gem",
          "url": "https://marveldbg.files.wordpress.com/2020/09/adam-warlock-01.jpg",
          "team": "Avengers",
          "class": "Ranged",
          "cost": 8,
          "attack": 0,
          "recruit": 0,
          "text": "Gain 4 Shards. Avengers Avengers: Burn 8 Shards: Defeat the Mastermind once. Then reveal the top card of the Villain Deck. If it's a Master Strike, then Adam Warlock is corrupted by power. At the start of the next turn, add the Magus Mastermind to teh game with one random Tactic."
        },
        {
          "name": "Soulblast",
          "url": "https://marveldbg.files.wordpress.com/2020/09/adam-warlock-02.jpg",
          "team": "Avengers",
          "class": "Covert",
          "cost": 5,
          "attack": 0,
          "recruit": 0,
          "text": "Gain 2 Shards. Covert: Burn 4 Shards: Defeat a Villain."
        },
        {
          "name": "Regenerative Cocoon",
          "url": "https://marveldbg.files.wordpress.com/2020/09/adam-warlock-03.jpg",
          "team": "Avengers",
          "class": "Strength",
          "cost": 4,
          "attack": 0,
          "recruit": 0,
          "text": "To play this, you must discard a card. When you draw a new hand of cards at the end of this turn, draw two extra cards."
        },
        {
          "name": "Transmute Matter",
          "url": "https://marveldbg.files.wordpress.com/2020/09/adam-warlock-04.jpg",
          "team": "Avengers",
          "class": "Covert",
          "cost": 3,
          "attack": 0,
          "recruit": 0,
          "text": "Gain a Shard. Burn 2 Shards: Halve the cost of a Hero in the HQ this turn."
        }
      ]
    },
    {
      "Captain Mar-Vell": [
        {
          "name": "Protector of the Universe",
          "url": "https://marveldbg.files.wordpress.com/2020/09/captain-mar-vell-01.jpg",
          "team": "Avengers",
          "class": "Covert",
          "cost": 7,
          "attack": 3,
          "recruit": 0,
          "text": "Danger Sense 4. If you gained any Shards this turn before playing this card, Danger Sense 7 instead."
        },
        {
          "name": "Channel the Nega-Bands",
          "url": "https://marveldbg.files.wordpress.com/2020/09/captain-mar-vell-02.jpg",
          "team": "Avengers",
          "class": "Tech",
          "cost": 6,
          "attack": 2,
          "recruit": 0,
          "text": "Avengers: Reveal the top card of your deck. If it costs 1 or more, gain a Shard. If it costs 0, KO it."
        },
        {
          "name": "Cosmic Awareness",
          "url": "https://marveldbg.files.wordpress.com/2020/09/captain-mar-vell-03.jpg",
          "team": "Avengers",
          "class": "Ranged",
          "cost": 2,
          "attack": 1,
          "recruit": 0,
          "text": "If you would get Strike from Danger Sense this turn, gain that many Shards instead. Danger Sense 1. Ranged: Instead, same effect with Danger Sense 2."
        },
        {
          "name": "EKree Genetics",
          "url": "https://marveldbg.files.wordpress.com/2020/09/captain-mar-vell-04.jpg",
          "team": "Avengers",
          "class": "Strength",
          "cost": 3,
          "attack": 0,
          "recruit": 2,
          "text": "If you gained any Shards this turn, draw a card."
        }
      ]
    },
    {
      "Moondragon": [
        {
          "name": "Lunar Dragon Form",
          "url": "https://marveldbg.files.wordpress.com/2020/09/moondragon-01.jpg",
          "team": "Avengers",
          "class": "Strength",
          "cost": 8,
          "attack": 5,
          "recruit": 0,
          "text": "Danger Sense 1. If this revealed a Scheme Twist, you get +3 Strike and you may shuffle the Villain Deck."
        },
        {
          "name": "Psychokinetic Blast",
          "url": "https://marveldbg.files.wordpress.com/2020/09/moondragon-02.jpg",
          "team": "Avengers",
          "class": "Ranged",
          "cost": 6,
          "attack": 1,
          "recruit": 0,
          "text": "Danger Sense 4. Avengers: If this revealed at least two Master Strikes, you may shuffle the Villain Deck."
        },
        {
          "name": "Psionic Warning",
          "url": "https://marveldbg.files.wordpress.com/2020/09/moondragon-03.jpg",
          "team": "Avengers",
          "class": "Instinct",
          "cost": 4,
          "attack": 1,
          "recruit": 0,
          "text": "Danger Sense 2. Instinct: If this revealed any Scheme Twists, gain a Shard."
        },
        {
          "name": "Peaceful Meditation",
          "url": "https://marveldbg.files.wordpress.com/2020/09/moondragon-04.jpg",
          "team": "Avengers",
          "class": "Covert",
          "cost": 3,
          "attack": 0,
          "recruit": 2,
          "text": "When you draw a new hand of cards at the end of this turn, if you didn't fight anything this turn, draw an extra card."
        }
      ]
    },
    {
      "Nebula": [
        {
          "name": "Daring Raid",
          "url": "https://marveldbg.files.wordpress.com/2020/09/nebula-01.jpg",
          "team": "Guardians of the Galaxy",
          "class": "Instinct",
          "cost": 7,
          "attack": 5,
          "recruit": 0,
          "text": "Whenever you take any number of Shards from a Villain, Mastermind, or other plaer this turn, you get +3 Recruit."
        },
        {
          "name": "Illusion Device",
          "url": "https://marveldbg.files.wordpress.com/2020/09/nebula-02.jpg",
          "team": "Guardians of the Galaxy",
          "class": "Tech",
          "cost": 6,
          "attack": 2,
          "recruit": 0,
          "text": "Tech: choose another player, Unless that player reveals a Covert Hero, take one of their Shards or \"rescue\" a Bystander from their Victory Pile."
        },
        {
          "name": "AGalactic Rogue",
          "url": "https://marveldbg.files.wordpress.com/2020/09/nebula-03.jpg",
          "team": "Guardians of the Galaxy",
          "class": "Instinct",
          "cost": 5,
          "attack": 3,
          "recruit": 0,
          "text": "A Villain gains a Shard. Instinct Tech: Take a Shard from a Villain."
        },
        {
          "name": "Ruthless Cyborg",
          "url": "https://marveldbg.files.wordpress.com/2020/09/nebula-04.jpg",
          "team": "Guardians of the Galaxy",
          "class": "Tech",
          "cost": 3,
          "attack": 0,
          "recruit": 2,
          "text": "Whenever you take any number of Shards from a Villain, Mastermind, or other player this turn, you may KO one of your cards or a card from your discard pile."
        }
      ]
    },
    {
      "Nova": [
        {
          "name": "Mobailize the Nova Corps",
          "url": "https://marveldbg.files.wordpress.com/2020/09/nova-01.jpg",
          "team": "Avengers",
          "class": "Ranged",
          "cost": 8,
          "attack": 0,
          "recruit": 0,
          "text": "Choose one: Draw three cards, or a Mastermind gains Cosmic Threat Ranged this turn."
        },
        {
          "name": "Declare Galactic Threat",
          "url": "https://marveldbg.files.wordpress.com/2020/09/nova-02.jpg",
          "team": "Avengers",
          "class": "Tech",
          "cost": 6,
          "attack": 0,
          "recruit": 0,
          "text": "A Villain gains Cosmic Threat Tech this turn."
        },
        {
          "name": "Electromagnetic Wave",
          "url": "https://marveldbg.files.wordpress.com/2020/09/nova-03.jpg",
          "team": "Avengers",
          "class": "Ranged",
          "cost": 3,
          "attack": 0,
          "recruit": 0,
          "text": "Choose one: You get +2 Recruit, or you gain a Shard. Ranged: Instead, do both."
        },
        {
          "name": "Draw From the Worldmind",
          "url": "https://marveldbg.files.wordpress.com/2020/09/nova-04.jpg",
          "team": "Avengers",
          "class": "Tech",
          "cost": 2,
          "attack": 0,
          "recruit": 0,
          "text": "Draw a card. Tech: You get +1 Recruit or +1 Strike."
        }
      ]
    },
    {
      "Phyla-Vell": [
        {
          "name": "Avatar of Oblivion",
          "url": "https://marveldbg.files.wordpress.com/2020/09/phylavell-01.jpg",
          "team": "Guardians of the Galaxy",
          "class": "Instinct",
          "cost": 8,
          "attack": 3,
          "recruit": 0,
          "text": "You may KO a card from your hand or discard pile. If you do, gain 2 Shards. Then, if you have at least 8 Shards, you get +3 Strike."
        },
        {
          "name": "Martyr",
          "url": "https://marveldbg.files.wordpress.com/2020/09/phylavell-02.jpg",
          "team": "Guardians of the Galaxy",
          "class": "Strength",
          "cost": 3,
          "attack": 2,
          "recruit": 0,
          "text": "If any player would gain a Wound, you may discard this card and gain 2 Shards instead."
        },
        {
          "name": "Quantum Sword",
          "url": "https://marveldbg.files.wordpress.com/2020/09/phylavell-03.jpg",
          "team": "Guardians of the Galaxy",
          "class": "Instinct",
          "cost": 4,
          "attack": 2,
          "recruit": 0,
          "text": "If you have at least 4 Shards, you get +2 Strike."
        },
        {
          "name": "Channel Cosmic Power",
          "url": "https://marveldbg.files.wordpress.com/2020/09/phylavell-04.jpg",
          "team": "Guardians of the Galaxy",
          "class": "Instinct",
          "cost": 2,
          "attack": 0,
          "recruit": 0,
          "text": "Gain a Shard. Instinct: Draw a card."
        }
      ]
    },
    {
      "Quasar": [
        {
          "name": "The Star Brand",
          "url": "https://marveldbg.files.wordpress.com/2020/09/quasar-01.jpg",
          "team": "Avengers",
          "class": "Strength",
          "cost": 7,
          "attack": 4,
          "recruit": 0,
          "text": "Whenever you defeat a Villain or Mastermind this turn, gain a Shard. Burn 4 Shards: You get +7 Strike."
        },
        {
          "name": "The Quantum Bands",
          "url": "https://marveldbg.files.wordpress.com/2020/09/quasar-02.jpg",
          "team": "Avengers",
          "class": "Covert",
          "cost": 5,
          "attack": 1,
          "recruit": 0,
          "text": "Gain a Shard. Burn 2 Shards: You may KO a card from you hand or discard pile."
        },
        {
          "name": "Cosmic Champion",
          "url": "https://marveldbg.files.wordpress.com/2020/09/quasar-03.jpg",
          "team": "Avengers",
          "class": "Ranged",
          "cost": 4,
          "attack": 2,
          "recruit": 0,
          "text": "Burn a Shard. You get +3 Strike."
        },
        {
          "name": "Manipulate Gravitons",
          "url": "https://marveldbg.files.wordpress.com/2020/09/quasar-04.jpg",
          "team": "Avengers",
          "class": "Covert",
          "cost": 3,
          "attack": 0,
          "recruit": 2,
          "text": "Covert: Whenever you recruit a Hero from the HQ this turn, gain a Shard."
        }
      ]
    },
    {
      "Ronan the Accuser": [
        {
          "name": "Seek the Infinity Gems",
          "url": "https://marveldbg.files.wordpress.com/2020/09/ronan-the-accuser-01.jpg",
          "team": "",
          "class": "Tech",
          "cost": 8,
          "attack": 4,
          "recruit": 0,
          "text": "Contest of Champions Strength: Each other player that loses must lose a Shard. Each player that wins gains 2 Shards. If the Mastermind wins, a Villain gains 2 Shards."
        },
        {
          "name": "Accuse Enemies of the Empire",
          "url": "https://marveldbg.files.wordpress.com/2020/09/ronan-the-accuser-02.jpg",
          "team": "",
          "class": "Strength",
          "cost": 6,
          "attack": 4,
          "recruit": 0,
          "text": "Contest of Champions Tech: Each player that wins rescues a Bystander. If the Mastermind wins, it captures a Bystander"
        },
        {
          "name": "Rally Kree Warriors",
          "url": "https://marveldbg.files.wordpress.com/2020/09/ronan-the-accuser-03.jpg",
          "team": "",
          "class": "Strength",
          "cost": 4,
          "attack": 0,
          "recruit": 2,
          "text": "Whenever you rescue a Bystander this turn, gain a Shard. Strength: Rescue a Bystander."
        },
        {
          "name": "Universal Weapon",
          "url": "https://marveldbg.files.wordpress.com/2020/09/ronan-the-accuser-04.jpg",
          "team": "",
          "class": "Tech",
          "cost": 3,
          "attack": 0,
          "recruit": 0,
          "text": "Gain a Shard. Burn 2 Shards: Draw two cards."
        }
      ]
    },
    {
      "Yondu": [
        {
          "name": "Space Pirate",
          "url": "https://marveldbg.files.wordpress.com/2020/09/yondu-01.jpg",
          "team": "Guardians of the Galaxy",
          "class": "Tech",
          "cost": 7,
          "attack": 0,
          "recruit": 0,
          "text": "Choose one: Gain a Hero from the HQ for free, or gain a Shard for each empty city space. Guardians of the Galaxy Guardians of the Galaxy Guardians of the Galaxy: Do both."
        },
        {
          "name": "Anticipate Their Movements",
          "url": "https://marveldbg.files.wordpress.com/2020/09/yondu-02.jpg",
          "team": "Guardians of the Galaxy",
          "class": "Instinct",
          "cost": 5,
          "attack": 1,
          "recruit": 0,
          "text": "Danger Sense 3. Guardians of the Galaxy: You may do the Fight effect of a Henchman Villain revealed this way."
        },
        {
          "name": "Interstellar Hunter",
          "url": "https://marveldbg.files.wordpress.com/2020/09/yondu-03.jpg",
          "team": "Guardians of the Galaxy",
          "class": "Covert",
          "cost": 3,
          "attack": 1,
          "recruit": 0,
          "text": "Danger Sense 2. Covert: If this revealed any Master Strikes, draw a card."
        },
        {
          "name": "Whistling Arrow",
          "url": "https://marveldbg.files.wordpress.com/2020/09/yondu-04.jpg",
          "team": "Guardians of the Galaxy",
          "class": "Ranged",
          "cost": 2,
          "attack": 0,
          "recruit": 0,
          "text": "Gain a Shard. Ranged: Burn any number of Shards: Defeat a Villain with printed VP equal to the number of Shards you burned."
        }
      ]
    }
  ]
}
