{
  "characters": [
    {
      "Human Torch": [
        {
          "name": "Nova Flame",
          "url": "https://marveldbg.files.wordpress.com/2019/09/human-torch-01.jpg",
          "team": "Fantastic Four",
          "class": "Ranged",
          "cost": 8,
          "attack": 6,
          "recruit": 0,
          "text": "Fantastic Four: You get +1 Strike for each city space that contains a Villain."
        },
        {
          "name": "Flame On!",
          "url": "https://marveldbg.files.wordpress.com/2019/09/human-torch-02.jpg",
          "team": "Fantastic Four",
          "class": "Ranged",
          "cost": 6,
          "attack": 4,
          "recruit": 0,
          "text": "Focus 6 Recruit -> You get +4 Strike."
        },
        {
          "name": "Call for Backup",
          "url": "https://marveldbg.files.wordpress.com/2019/09/human-torch-03.jpg",
          "team": "Fantastic Four",
          "class": "Instinct",
          "cost": 3,
          "attack": 0,
          "recruit": 2,
          "text": "You may KO a Wound from you hand or discard pile. If you do, you get +1 Recruit."
        },
        {
          "name": "Hothead",
          "url": "https://marveldbg.files.wordpress.com/2019/09/human-torch-04.jpg",
          "team": "Fantastic Four",
          "class": "Ranged",
          "cost": 4,
          "attack": 4,
          "recruit": 0,
          "text": "You gain a Wound."
        }
      ]
    },
    {
      "Invisible Woman": [
        {
          "name": "Invisible Barrier",
          "url": "https://marveldbg.files.wordpress.com/2019/09/invisible-woman-01.jpg",
          "team": "Fantastic Four",
          "class": "Covert",
          "cost": 7,
          "attack": 5,
          "recruit": 0,
          "text": "If an ambush effect would occur, you may reveal this card and draw two cards instead."
        },
        {
          "name": "Unseen Rescue",
          "url": "https://marveldbg.files.wordpress.com/2019/09/invisible-woman-02.jpg",
          "team": "Fantastic Four",
          "class": "Covert",
          "cost": 4,
          "attack": 2,
          "recruit": 0,
          "text": "Focus 2 Recruit -> Rescue a Bystander. You may only use this ability up to four times this turn."
        },
        {
          "name": "Disappearing Act",
          "url": "https://marveldbg.files.wordpress.com/2019/09/invisible-woman-03.jpg",
          "team": "Fantastic Four",
          "class": "Covert",
          "cost": 4,
          "attack": 0,
          "recruit": 2,
          "text": "Focus 2 Recruit -> You may KO a card from your hand or discard pile."
        },
        {
          "name": "Four of a Kind",
          "url": "https://marveldbg.files.wordpress.com/2019/09/invisible-woman-04.jpg",
          "team": "Fantastic Four",
          "class": "Ranged",
          "cost": 4,
          "attack": 2,
          "recruit": 0,
          "text": "If you played any other cards that cost 4 this turn, you get +2 Strike."
        }
      ]
    },
    {
      "Mr. Fantastic": [
        {
          "name": "Ultimate Nullifier",
          "url": "https://marveldbg.files.wordpress.com/2019/09/mr-fantastic-01.jpg",
          "team": "Fantastic Four",
          "class": "Tech",
          "cost": 7,
          "attack": 4,
          "recruit": 0,
          "text": "If an Enemy you fight this turn would have a fight effect, you may cancel that effect instead. Focus 1 Recruit -> You get +1 Strike usable only against the Mastermind."
        },
        {
          "name": "One Gigantic Hand",
          "url": "https://marveldbg.files.wordpress.com/2019/09/mr-fantastic-02.jpg",
          "team": "Fantastic Four",
          "class": "Instinct",
          "cost": 5,
          "attack": 1,
          "recruit": 0,
          "text": "Fantastic Four: You get +1 Strike for each card in your hand."
        },
        {
          "name": "Unstable Modecules",
          "url": "https://marveldbg.files.wordpress.com/2019/09/mr-fantastic-03.jpg",
          "team": "Fantastic Four",
          "class": "Tech",
          "cost": 5,
          "attack": 0,
          "recruit": 0,
          "text": "Draw two cards"
        },
        {
          "name": "Twisting Equations",
          "url": "https://marveldbg.files.wordpress.com/2019/09/mr-fantastic-04.jpg",
          "team": "Fantastic Four",
          "class": "Tech",
          "cost": 3,
          "attack": 0,
          "recruit": 2,
          "text": "Focus 2 Recruit -> When you draw a new hand of cards at the end of the turn, draw an extra card."
        }
      ]
    },
    {
      "Silver Surfer": [
        {
          "name": "Energy Surge",
          "url": "https://marveldbg.files.wordpress.com/2019/09/silver-surfer-01.jpg",
          "team": "",
          "class": "Ranged",
          "cost": 7,
          "attack": 0,
          "recruit": 0,
          "text": "Double the Recruit you have."
        },
        {
          "name": "The Power Cosmic",
          "url": "https://marveldbg.files.wordpress.com/2019/09/silver-surfer-02.jpg",
          "team": "",
          "class": "Ranged",
          "cost": 6,
          "attack": 0,
          "recruit": 3,
          "text": "Focus 9 Recruit -> You get +9 Strike."
        },
        {
          "name": "Warp Speed",
          "url": "https://marveldbg.files.wordpress.com/2019/09/silver-surfer-03.jpg",
          "team": "",
          "class": "Covert",
          "cost": 3,
          "attack": 0,
          "recruit": 2,
          "text": "Focus 2 Recruuit -> Draw a card."
        },
        {
          "name": "Epic Destiny",
          "url": "https://marveldbg.files.wordpress.com/2019/09/silver-surfer-04.jpg",
          "team": "",
          "class": "Strength",
          "cost": 4,
          "attack": 0,
          "recruit": 2,
          "text": "Focus 6 Recruit -> Defeat a Villain of 5 Strike or 6 Strike."
        }
      ]
    },
    {
      "Thing": [
        {
          "name": "It's Clobberin' Time!",
          "url": "https://marveldbg.files.wordpress.com/2019/09/thing-01.jpg",
          "team": "Fantastic Four",
          "class": "Strength",
          "cost": 8,
          "attack": 5,
          "recruit": 0,
          "text": "Strength: You get +3 Strike for each other Strength card yo uplayed this turn."
        },
        {
          "name": "Crime Stopper",
          "url": "https://marveldbg.files.wordpress.com/2019/09/thing-02.jpg",
          "team": "Fantastic Four",
          "class": "Strength",
          "cost": 6,
          "attack": 4,
          "recruit": 0,
          "text": "Whenever you defeat a Villain in the Bank this turn, rescue a Bystander. Focus 1 Recruit -> Move a Villain to an adjacent city space. If another Villain is already there, swap them."
        },
        {
          "name": "Knuckle Sandwich",
          "url": "https://marveldbg.files.wordpress.com/2019/09/thing-03.jpg",
          "team": "Fantastic Four",
          "class": "Strength",
          "cost": 5,
          "attack": 0,
          "recruit": 3,
          "text": "Focus 3 Recruit -> You get +2 Strike."
        },
        {
          "name": "It Started on Yancy Street",
          "url": "https://marveldbg.files.wordpress.com/2019/09/thing-04.jpg",
          "team": "Fantastic Four",
          "class": "Instinct",
          "cost": 3,
          "attack": 0,
          "recruit": 2,
          "text": "Fantastic Four: You get +2 Recruit."
        }
      ]
    }
  ]
}
