{
  "characters": [
    {
      "Captain Marvel, Agent of Shield": [
        {
          "name": "Higher, Further, Faster",
          "url": "https://marveldbg.files.wordpress.com/2019/09/cpt-marvel-01.jpg",
          "team": "Shield",
          "class": "Strength",
          "cost": 7,
          "attack": 0,
          "recruit": 0,
          "text": "Choose one: Draw three cards or Last Stand. Strength Strength: Instead, do both."
        },
        {
          "name": "Dominate the Battlefield",
          "url": "https://marveldbg.files.wordpress.com/2019/09/cpt-marvel-02.jpg",
          "team": "Shield",
          "class": "Ranged",
          "cost": 6,
          "attack": 2,
          "recruit": 0,
          "text": "Ranged: Last Stand"
        },
        {
          "name": "Radiant Blast",
          "url": "https://marveldbg.files.wordpress.com/2019/09/cpt-marvel-03.jpg",
          "team": "Shield",
          "class": "Ranged",
          "cost": 4,
          "attack": 2,
          "recruit": 0,
          "text": "If you drew any extra cards this turn, you get +1 Strike."
        },
        {
          "name": "The Sword of S.H.I.E.L.D.",
          "url": "https://marveldbg.files.wordpress.com/2019/09/cpt-marvel-04.jpg",
          "team": "Shield",
          "class": "Strength",
          "cost": 3,
          "attack": 0,
          "recruit": 2,
          "text": "Shield Shield Shield Shield: Draw a card."
        }
      ]
    },
    {
      "Darkhawk": [
        {
          "name": "Warflight",
          "url": "https://marveldbg.files.wordpress.com/2019/09/darkhawk-01.jpg",
          "team": "Avengers",
          "class": "Tech",
          "cost": 7,
          "attack": 0,
          "recruit": 0,
          "text": "Whenever you use Hyperspeed this turn, you get both Recruit from Recruit icns and Strike from Strike icons. Hyperspeed 7. Tech Tech: Instead, Hyperspeed 9."
        },
        {
          "name": "Travel to Nullspace",
          "url": "https://marveldbg.files.wordpress.com/2019/09/darkhawk-02.jpg",
          "team": "Avengers",
          "class": "Tech",
          "cost": 6,
          "attack": 0,
          "recruit": 0,
          "text": "If the most recent Hero you played this turn has a Recruit icon, you get +3 Recruit. If it has a Strike icon, you get +3 Strike."
        },
        {
          "name": "Hawk Dive",
          "url": "https://marveldbg.files.wordpress.com/2019/09/darkhawk-03.jpg",
          "team": "Avengers",
          "class": "Covert",
          "cost": 4,
          "attack": 0,
          "recruit": 0,
          "text": "Choose Recruit or Strike. Then Hyperspeed 4 for that icon."
        },
        {
          "name": "Balance the Darkforce",
          "url": "https://marveldbg.files.wordpress.com/2019/09/darkhawk-04.jpg",
          "team": "Avengers",
          "class": "Tech",
          "cost": 3,
          "attack": 1,
          "recruit": 1,
          "text": "Tech: Draw a card."
        }
      ]
    },
    {
      "Hellcat": [
        {
          "name": "Crystal of Kadavus",
          "url": "https://marveldbg.files.wordpress.com/2019/09/hellcat_01.jpg",
          "team": "Avengers",
          "class": "Instinct",
          "cost": 8,
          "attack": 6,
          "recruit": 0,
          "text": "If a Master Strike or Scheme Twist would occur, you may discard this card from you hand instead. If you do, draw three cards then shuffle that Strike or Twist back into the Villain Deck."
        },
        {
          "name": "Demon Sight",
          "url": "https://marveldbg.files.wordpress.com/2019/09/hellcat_02.jpg",
          "team": "Avengers",
          "class": "Covert",
          "cost": 5,
          "attack": 2,
          "recruit": 0,
          "text": "Guess Villain, Bystander, Strike, or Twist. Then reveal the top card of the Villain Deck. If you guessed right, you get +2 Strike. Avengers: If it was a Villain, you may fight it this turn."
        },
        {
          "name": "Part-Time PI",
          "url": "https://marveldbg.files.wordpress.com/2019/09/hellcat_03.jpg",
          "team": "Avengers",
          "class": "Instinct",
          "cost": 3,
          "attack": 0,
          "recruit": 2,
          "text": "Reveal the top card of any deck. If it's not a Scheme Twist, you may put it on the bottom of that deck. Instinct: Choose one - Draw a card or you get +1 Recruit."
        },
        {
          "name": "Catlike Agility",
          "url": "https://marveldbg.files.wordpress.com/2019/09/hellcat_04.jpg",
          "team": "Avengers",
          "class": "Instinct",
          "cost": 2,
          "attack": 1,
          "recruit": 0,
          "text": "Instinct: Choose one - Draw a card or you get +1 Strike."
        }
      ]
    },
    {
      "Proton": [
        {
          "name": "Coruscating Vengeance",
          "url": "https://marveldbg.files.wordpress.com/2019/09/photon-01.jpg",
          "team": "Avengers",
          "class": "Ranged",
          "cost": 8,
          "attack": 6,
          "recruit": 0,
          "text": "Avengers Avengers: Last Stand."
        },
        {
          "name": "Light the Way",
          "url": "https://marveldbg.files.wordpress.com/2019/09/photon-02.jpg",
          "team": "Avengers",
          "class": "Covert",
          "cost": 6,
          "attack": 3,
          "recruit": 0,
          "text": "You get +1 Strike for each card you discarded from your hand this turn."
        },
        {
          "name": "Ultraviolet Radiation",
          "url": "https://marveldbg.files.wordpress.com/2019/09/photon-03.jpg",
          "team": "Avengers",
          "class": "Ranged",
          "cost": 4,
          "attack": 3,
          "recruit": 0,
          "text": "To play this, you must discard a card. Ranged: Hyperspeed 3."
        },
        {
          "name": "Infrared Conversation",
          "url": "https://marveldbg.files.wordpress.com/2019/09/photon-04.jpg",
          "team": "Avengers",
          "class": "Ranged",
          "cost": 3,
          "attack": 0,
          "recruit": 0,
          "text": "To play this, you must discard a card. Draw two cards."
        }
      ]
    },
    {
      "Quicksilver": [
        {
          "name": "Around the World Punch",
          "url": "https://marveldbg.files.wordpress.com/2019/09/quicksilver-01.jpg",
          "team": "Avengers",
          "class": "Strength",
          "cost": 8,
          "attack": 0,
          "recruit": 0,
          "text": "Hyperspeed your entire remaining deck. Avengers Avengers Avengers Avengers: Before you do that, put your discard pile on top of your deck."
        },
        {
          "name": "Jittery Impatience",
          "url": "https://marveldbg.files.wordpress.com/2019/09/quicksilver-02.jpg",
          "team": "Avengers",
          "class": "Instinct",
          "cost": 6,
          "attack": 2,
          "recruit": 2,
          "text": "Look at the top card of your deck. Discard it or put it back. Instinct: You may KO the card you discarded this way."
        },
        {
          "name": "Perpetual Motion",
          "url": "https://marveldbg.files.wordpress.com/2019/09/quicksilver-03.jpg",
          "team": "Avengers",
          "class": "Strength",
          "cost": 4,
          "attack": 2,
          "recruit": 0,
          "text": "Strength: Hyperspeed 4"
        },
        {
          "name": "Too Fast to See",
          "url": "https://marveldbg.files.wordpress.com/2019/09/quicksilver-04.jpg",
          "team": "Avengers",
          "class": "Instinct",
          "cost": 3,
          "attack": 0,
          "recruit": 0,
          "text": "Hyperspeed 3 for Recruit. Instinct: Instead Hyperspeed 3 for Recruit and Strike."
        }
      ]
    },
    {
      "Ronin": [
        {
          "name": "Brooding Fury",
          "url": "https://marveldbg.files.wordpress.com/2019/09/ronin-01.jpg",
          "team": "Avengers",
          "class": "Strength",
          "cost": 7,
          "attack": 3,
          "recruit": 0,
          "text": "Dark Memories. Strength: Dark Memories again."
        },
        {
          "name": "Haunted By Loss",
          "url": "https://marveldbg.files.wordpress.com/2019/09/ronin-02.jpg",
          "team": "Avengers",
          "class": "Instinct",
          "cost": 5,
          "attack": 2,
          "recruit": 0,
          "text": "Instinct: Dark Memories."
        },
        {
          "name": "Storm of Arrows",
          "url": "https://marveldbg.files.wordpress.com/2019/09/ronin-03.jpg",
          "team": "Avengers",
          "class": "Ranged",
          "cost": 4,
          "attack": 0,
          "recruit": 0,
          "text": "Hyperspeed 4. Ranged: Draw a card."
        },
        {
          "name": "Mysterious Identity",
          "url": "https://marveldbg.files.wordpress.com/2019/09/ronin-04.jpg",
          "team": "Avengers",
          "class": "Covert",
          "cost": 3,
          "attack": 2,
          "recruit": 0,
          "text": "As you play this card, you may choose a color and/or a team icon. This card is that color and team icon this turn."
        }
      ]
    },
    {
      "Scarlet Witch": [
        {
          "name": "Ward Time and Space",
          "url": "https://marveldbg.files.wordpress.com/2019/09/scarlet-witch-01.jpg",
          "team": "Avengers",
          "class": "Covert",
          "cost": 7,
          "attack": 0,
          "recruit": 0,
          "text": "Reveal the top three cards of the Hero Deck. Put one of them in your hand. Put the rest on the top or bottom of the Hero Deck in any order. Avengers Avengers Avengers: Dark Memories."
        },
        {
          "name": "Chaos Magic",
          "url": "https://marveldbg.files.wordpress.com/2019/09/scarlet-witch-02.jpg",
          "team": "Avengers",
          "class": "Covert",
          "cost": 4,
          "attack": 0,
          "recruit": 0,
          "text": "Reveal the top card of the Hero Deck. You may play a copy of that card this turn. When you do, put that card on the bottom of the Hero Deck."
        },
        {
          "name": "Hex Bolt",
          "url": "https://marveldbg.files.wordpress.com/2019/09/scarlet-witch-03.jpg",
          "team": "Avengers",
          "class": "Ranged",
          "cost": 2,
          "attack": 1,
          "recruit": 0,
          "text": "Ranged: Discard the top card of any player's deck. You may play a copy of that card this turn."
        },
        {
          "name": "Alter Reality",
          "url": "https://marveldbg.files.wordpress.com/2019/09/scarlet-witch-04.jpg",
          "team": "Avengers",
          "class": "Covert",
          "cost": 3,
          "attack": 0,
          "recruit": 2,
          "text": "Reveal the top card of your deck. Discard it or put it back. Covert: Dark Memories."
        }
      ]
    },
    {
      "Speed": [
        {
          "name": "Break the Sound Barrier",
          "url": "https://marveldbg.files.wordpress.com/2019/09/speed_01.jpg",
          "team": "Avengers",
          "class": "Covert",
          "cost": 8,
          "attack": 0,
          "recruit": 0,
          "text": "Look at the top six cards of your deck. Draw two of them, and put the rest back on the top or bottom in any order. Covert: Hyperspeed 6."
        },
        {
          "name": "Race to the Rescue",
          "url": "https://marveldbg.files.wordpress.com/2019/09/speed_02.jpg",
          "team": "Avengers",
          "class": "Covert",
          "cost": 5,
          "attack": 3,
          "recruit": 0,
          "text": "Choose a Hero Class. Reveal the top card of your deck. If it's the Hero Class you named, draw it. Otherwise, put it back on the top or bottom."
        },
        {
          "name": "Accelerate",
          "url": "https://marveldbg.files.wordpress.com/2019/09/speed_03.jpg",
          "team": "Avengers",
          "class": "Instinct",
          "cost": 2,
          "attack": 0,
          "recruit": 0,
          "text": "Hyperspeed 2. Instinct: Instead, Hyperspeed 6"
        },
        {
          "name": "Speedy Delivery",
          "url": "https://marveldbg.files.wordpress.com/2019/09/speed_04.jpg",
          "team": "Avengers",
          "class": "Instinct",
          "cost": 4,
          "attack": 1,
          "recruit": 2,
          "text": "The next Hero you recruit this turn goes on top of your deck."
        }
      ]
    },
    {
      "War Machine": [
        {
          "name": "Overwhelming Firepower",
          "url": "https://marveldbg.files.wordpress.com/2019/09/war-machine-01.jpg",
          "team": "Avengers",
          "class": "Tech",
          "cost": 8,
          "attack": 5,
          "recruit": 0,
          "text": "Whenever you defeat a Villain or Mastermind this turn, draw a card and rescue a Bystander."
        },
        {
          "name": "Hypersonic Cannon",
          "url": "https://marveldbg.files.wordpress.com/2019/09/war-machine-02.jpg",
          "team": "Avengers",
          "class": "Ranged",
          "cost": 5,
          "attack": 0,
          "recruit": 0,
          "text": "Hyperspeed 5. Ranged: You may KO a card from your discard pile."
        },
        {
          "name": "Military-Industrial Complex",
          "url": "https://marveldbg.files.wordpress.com/2019/09/war-machine-03.jpg",
          "team": "Avengers",
          "class": "Tech",
          "cost": 4,
          "attack": 2,
          "recruit": 0,
          "text": "Whenever you defeat a Villain this turn, you get +1 Recruit."
        },
        {
          "name": "Simulated Target Practice",
          "url": "https://marveldbg.files.wordpress.com/2019/09/war-machine-04.jpg",
          "team": "Avengers",
          "class": "Tech",
          "cost": 3,
          "attack": 2,
          "recruit": 0,
          "text": "Tech: You may fight a Henchman from your Victory Pile this turn. If you do, KO it and rescue a Bystander."
        }
      ]
    }
  ]
}
