{
  "characters": [
    {
      "Ant-Man": [
        {
          "name": "Pym Particles",
          "url": "https://marveldbg.files.wordpress.com/2019/09/ant-man-01.png",
          "team": "Avengers",
          "class": "Tech",
          "cost": 9,
          "attack": 5,
          "recruit": 0,
          "text": "Microscopic Size-Changing Tech Tech Tech Tech Tech. A Hero in the HQ with no Size-Changing abilities gains Size-Changing Tech this turn."
        },
        {
          "name": "Giant Ego",
          "url": "https://marveldbg.files.wordpress.com/2019/09/ant-man-02.png",
          "team": "Avengers",
          "class": "Strength",
          "cost": 6,
          "attack": 2,
          "recruit": 0,
          "text": "Size-Changing Tech. You get +1 Strike for each extra card you drew this turn."
        },
        {
          "name": "Risky Science",
          "url": "https://marveldbg.files.wordpress.com/2019/09/ant-man-03.png",
          "team": "Avengers",
          "class": "Tech",
          "cost": 5,
          "attack": 2,
          "recruit": 0,
          "text": "Microscopic Size-Changing Tech Tech Tech. Tech: You may discard a card. If you do, draw a card."
        },
        {
          "name": "Ride the Ants",
          "url": "https://marveldbg.files.wordpress.com/2019/09/ant-man-04.png",
          "team": "Avengers",
          "class": "Tech",
          "cost": 4,
          "attack": 1,
          "recruit": 0,
          "text": "Size-Changing Tech. Draw a card."
        }
      ]
    },
    {
      "Black Knight": [
        {
          "name": "The Ebony Blade",
          "url": "https://marveldbg.files.wordpress.com/2019/09/black-knight-01.png",
          "team": "Avengers",
          "class": "Instinct",
          "cost": 7,
          "attack": 0,
          "recruit": 0,
          "text": "You get +Strike equal to the printed Strike of a Villain in your Victory Pile."
        },
        {
          "name": "Flying Steed",
          "url": "https://marveldbg.files.wordpress.com/2019/09/black-knight-02.png",
          "team": "Avengers",
          "class": "Covert",
          "cost": 6,
          "attack": 3,
          "recruit": 0,
          "text": "When a Master Strike is played, before it takes effect, you may discard this card. If you do, draw three extra cards at the end of this turn."
        },
        {
          "name": "Amulet of Avalon",
          "url": "https://marveldbg.files.wordpress.com/2019/09/black-knight-03.png",
          "team": "Avengers",
          "class": "Instinct",
          "cost": 3,
          "attack": 0,
          "recruit": 0,
          "text": "You get Empowered by the color of your choice."
        },
        {
          "name": "Defend the Weak",
          "url": "https://marveldbg.files.wordpress.com/2019/09/black-knight-04.png",
          "team": "Avengers",
          "class": "Strength",
          "cost": 3,
          "attack": 0,
          "recruit": 2,
          "text": "Strength: Return a 0-cost card from your discard pile to your hand."
        }
      ]
    },
    {
      "Jocasta": [
        {
          "name": "Electromagnetic Eyebeams",
          "url": "https://marveldbg.files.wordpress.com/2019/09/jocasta-01.png",
          "team": "Avengers",
          "class": "Ranged",
          "cost": 7,
          "attack": 5,
          "recruit": 0,
          "text": "If your discard pile is empty, you get +2 Strike. Otherwise, shuffle your discard pile into your deck."
        },
        {
          "name": "Holographic Image Inducer",
          "url": "https://marveldbg.files.wordpress.com/2019/09/jocasta-02.png",
          "team": "Avengers",
          "class": "Tech",
          "cost": 6,
          "attack": 0,
          "recruit": 0,
          "text": "Size-Changing Tech. Draw two cards."
        },
        {
          "name": "Reprocess",
          "url": "https://marveldbg.files.wordpress.com/2019/09/jocasta-03.png",
          "team": "Avengers",
          "class": "Ranged",
          "cost": 4,
          "attack": 0,
          "recruit": 2,
          "text": "If your discard pile is empty, you get +2 Recruit. Otherwise, shuffle your discard pile into your deck."
        },
        {
          "name": "Creation of Ultron",
          "url": "https://marveldbg.files.wordpress.com/2019/09/jocasta-04.png",
          "team": "Avengers",
          "class": "Tech",
          "cost": 3,
          "attack": 2,
          "recruit": 0,
          "text": "Tech. You get Empowered by Tech."
        }
      ]
    },
    {
      "Wasp": [
        {
          "name": "Founding Avenger",
          "url": "https://marveldbg.files.wordpress.com/2019/09/wasp-01.png",
          "team": "Avengers",
          "class": "Covert",
          "cost": 9,
          "attack": 4,
          "recruit": 0,
          "text": "Microscopic Size-Changing Covert Covert Covert Covert Covert. Avengers: You get +1 Strike for each other Avengers card you played this turn."
        },
        {
          "name": "Swarm Tactics",
          "url": "https://marveldbg.files.wordpress.com/2019/09/wasp-02.png",
          "team": "Avengers",
          "class": "Ranged",
          "cost": 6,
          "attack": 2,
          "recruit": 0,
          "text": "Size-Changing Covert. You get +1 Strike for each card you recruited this turn."
        },
        {
          "name": "Bio-Electric Sting",
          "url": "https://marveldbg.files.wordpress.com/2019/09/wasp-03.png",
          "team": "Avengers",
          "class": "Covert",
          "cost": 3,
          "attack": 1,
          "recruit": 0,
          "text": "Microscopic Size-Changing Covert Covert. Covert: You get +2 Strike."
        },
        {
          "name": "Tiny Winged Justice",
          "url": "https://marveldbg.files.wordpress.com/2019/09/wasp-04.png",
          "team": "Avengers",
          "class": "Covert",
          "cost": 4,
          "attack": 0,
          "recruit": 2,
          "text": "Size-Changing Covert. Covert: Draw a card."
        }
      ]
    },
    {
      "Wonder Man": [
        {
          "name": "8th Wonder of the World",
          "url": "https://marveldbg.files.wordpress.com/2019/09/wonder-man-01.png",
          "team": "Avengers",
          "class": "Strength",
          "cost": 8,
          "attack": 4,
          "recruit": 0,
          "text": "Size-Changing Strength. Choose any number of cards from the HQ. Put them on the bottom of the Hero Deck. Then you get Empowered by Ranged and Strength."
        },
        {
          "name": "Absorb Ambient Power",
          "url": "https://marveldbg.files.wordpress.com/2019/09/wonder-man-02.png",
          "team": "Avengers",
          "class": "Ranged",
          "cost": 5,
          "attack": 0,
          "recruit": 0,
          "text": "Put a card from the HQ on the bottom of the Hero Deck. If that card had a Recruit icon, you get +3 Recruit. If that card had a Strike icon, you get +3 Strike."
        },
        {
          "name": "One-Hit Wonder",
          "url": "https://marveldbg.files.wordpress.com/2019/09/wonder-man-03.png",
          "team": "Avengers",
          "class": "Strength",
          "cost": 2,
          "attack": 0,
          "recruit": 0,
          "text": "Choose one: Draw a card, or you get Empowered by Strength."
        },
        {
          "name": "Tiny Winged Justice",
          "url": "https://marveldbg.files.wordpress.com/2019/09/wonder-man-04.png",
          "team": "Avengers",
          "class": "Ranged",
          "cost": 4,
          "attack": 2,
          "recruit": 0,
          "text": "You may put a card from the HQ on the bottom of the Hero Deck. Ranged: You get Empowered by Ranged."
        }
      ]
    }
  ]
}
