{
  "characters": [
    {
      "Agent Venom": [
        {
          "name": "Shapeshifting Symbiote",
          "url": "https://marveldbg.files.wordpress.com/2019/09/agent-venom-01.jpg",
          "team": "Spider Friends",
          "class": "Strength",
          "cost": 7,
          "attack": 0,
          "recruit": 0,
          "text": "Wall-Crawl. For each other card you played this turn with a Recruit icon, you get +1 Recruit. For each other card you played this turn with a Strike icon, you get +1 Strike."
        },
        {
          "name": "Big Slimportunity",
          "url": "https://marveldbg.files.wordpress.com/2019/09/agent-venom-02.jpg",
          "team": "Spider Friends",
          "class": "Instinct",
          "cost": 6,
          "attack": 2,
          "recruit": 2,
          "text": "Wall-Crawl. Patrol the Sewers: if it's empty, draw a card."
        },
        {
          "name": "Government Payroll",
          "url": "https://marveldbg.files.wordpress.com/2019/09/agent-venom-03.jpg",
          "team": "Spider Friends",
          "class": "Strength, Instinct",
          "cost": 3,
          "attack": 0,
          "recruit": 0,
          "text": "Wall-Crawl. Patrol the Bank: It it's empty, you get +2 Recruit. If it's not, you get +2 Strike."
        },
        {
          "name": "Multi-Gun",
          "url": "https://marveldbg.files.wordpress.com/2019/09/agent-venom-04.jpg",
          "team": "Spider Friends",
          "class": "Tech",
          "cost": 2,
          "attack": 1,
          "recruit": 1,
          "text": "Spectrum: You get +1 Recruit and +1 Strike."
        }
      ]
    },
    {
      "Arkon the Magnificent": [
        {
          "name": "Lord of Dragons",
          "url": "https://marveldbg.files.wordpress.com/2019/09/arkon-01.jpg",
          "team": "",
          "class": "Instinct",
          "cost": 7,
          "attack": 0,
          "recruit": 0,
          "text": "Patrol the Rooftops: if it's empty, you get +4 Recruit and +4 Strike. If it's not, defeat the Villain there for free."
        },
        {
          "name": "Warlord of Open Spaces",
          "url": "https://marveldbg.files.wordpress.com/2019/09/arkon-02.jpg",
          "team": "",
          "class": "Instinct",
          "cost": 5,
          "attack": 3,
          "recruit": 0,
          "text": "Patrol two adjacent city spaces: If they're both empty, you get +1 Strike."
        },
        {
          "name": "Quiver of Thunderbolts",
          "url": "https://marveldbg.files.wordpress.com/2019/09/arkon-03.jpg",
          "team": "",
          "class": "Ranged",
          "cost": 3,
          "attack": 2,
          "recruit": 0,
          "text": "Spectrum: Draw a card."
        },
        {
          "name": "All-Terrain Barbarian",
          "url": "https://marveldbg.files.wordpress.com/2019/09/arkon-04.jpg",
          "team": "",
          "class": "Strength, Covert",
          "cost": 3,
          "attack": 0,
          "recruit": 2,
          "text": "Wall-Crawl. Patrol the Sewers: If it's empty, you get +1 Recruit."
        }
      ]
    },
    {
      "Beast": [
        {
          "name": "Multi_Variate Smackulus",
          "url": "https://marveldbg.files.wordpress.com/2019/09/beast-01.jpg",
          "team": "Illuminati",
          "class": "Strength, Tech",
          "cost": 8,
          "attack": 4,
          "recruit": 0,
          "text": "Tech Tech Strength Strength: Draw three cards."
        },
        {
          "name": "Doctor of Beatdown",
          "url": "https://marveldbg.files.wordpress.com/2019/09/beast-02.jpg",
          "team": "Illuminati",
          "class": "Strength, Tech",
          "cost": 6,
          "attack": 2,
          "recruit": 0,
          "text": "For each other Strength card yo uplayed this turn, you get +1 Strike. For each other Tech card you played this turn, you get +1 Strike."
        },
        {
          "name": "Upside-Down Thinking",
          "url": "https://marveldbg.files.wordpress.com/2019/09/beast-03.jpg",
          "team": "Illuminati",
          "class": "Strength, Tech",
          "cost": 4,
          "attack": 0,
          "recruit": 0,
          "text": "Wall-Crawl. Patrol any city space: If it's empty, then the Hero in the HQ space under it costs 3 less this turn."
        },
        {
          "name": "Balanced Attack",
          "url": "https://marveldbg.files.wordpress.com/2019/09/beast-04.jpg",
          "team": "Illuminati",
          "class": "Strength, Tech",
          "cost": 3,
          "attack": 2,
          "recruit": 0,
          "text": "reveal the top card of your deck. Iff it's Tech or Strength, draw it."
        }
      ]
    },
    {
      "Black Swan": [
        {
          "name": "Telepathic Control",
          "url": "https://marveldbg.files.wordpress.com/2019/09/black-swan-01.jpg",
          "team": "Cabal",
          "class": "Covert",
          "cost": 7,
          "attack": 0,
          "recruit": 0,
          "text": "Reveal the top five cards of the Villain Deck. You get +Strike equal to the printed Red Circle of one of those cards. Put them back in any order. Cabal: Instead, you get +Strike for two of those cards."
        },
        {
          "name": "Dark Foretelling",
          "url": "https://marveldbg.files.wordpress.com/2019/09/black-swan-02.jpg",
          "team": "Cabal",
          "class": "Instinct, Ranged",
          "cost": 6,
          "attack": 4,
          "recruit": 0,
          "text": "Reveal the top three cards of the Villain Deck. Rescue any Bystanders you revealed, then put the rest back in any order."
        },
        {
          "name": "Witness the End",
          "url": "https://marveldbg.files.wordpress.com/2019/09/black-swan-03.jpg",
          "team": "Cabal",
          "class": "Instinct",
          "cost": 5,
          "attack": 0,
          "recruit": 2,
          "text": "Instinct: You may KO a card from your hand or discard pile. If you do, draw a card."
        },
        {
          "name": "Apocalyptic Vision",
          "url": "https://marveldbg.files.wordpress.com/2019/09/black-swan-04.jpg",
          "team": "Cabal",
          "class": "Ranged",
          "cost": 3,
          "attack": 2,
          "recruit": 0,
          "text": "Ranged: Reveal the top card of the Villain Deck. If it's a Scheme Twist, you get +2 Strike. Otherwise, put it back on the top or bottom."
        }
      ]
    },
    {
      "The Captain and the Devil": [
        {
          "name": "Dino-Roar of Triumph",
          "url": "https://marveldbg.files.wordpress.com/2019/09/captain-and-the-devil-01.jpg",
          "team": "Avengers",
          "class": "Ranged",
          "cost": 8,
          "attack": 6,
          "recruit": 0,
          "text": "Whenever you defeat a Villain this turn, each Villain and Mastermind adjacent to it gets -2 Strike this turn."
        },
        {
          "name": "Feeding Grounds",
          "url": "https://marveldbg.files.wordpress.com/2019/09/captain-and-the-devil-02.jpg",
          "team": "Avengers",
          "class": "Covert",
          "cost": 6,
          "attack": 3,
          "recruit": 0,
          "text": "Patrol the Streets: If it's empty, you may KO a card from your hand or discard pile."
        },
        {
          "name": "Jurassic America",
          "url": "https://marveldbg.files.wordpress.com/2019/09/captain-and-the-devil-03.jpg",
          "team": "Avengers",
          "class": "Strength, Tech",
          "cost": 2,
          "attack": 0,
          "recruit": 1,
          "text": "Spectrum: You get +2 Recruit."
        },
        {
          "name": "Patriotic Chomp",
          "url": "https://marveldbg.files.wordpress.com/2019/09/captain-and-the-devil-04.jpg",
          "team": "Avengers",
          "class": "Instinct",
          "cost": 4,
          "attack": 2,
          "recruit": 0,
          "text": "Spectrum: You get +2 Strike."
        }
      ]
    },
    {
      "Captain Britain": [
        {
          "name": "Lead the Captin Britain Corps",
          "url": "https://marveldbg.files.wordpress.com/2019/09/captain-britain-01.jpg",
          "team": "Illuminati",
          "class": "Strength",
          "cost": 7,
          "attack": 0,
          "recruit": 0,
          "text": "When you draw a new hand of cards at the end of this turn, draw three extra cards."
        },
        {
          "name": "Raise the Union Jack",
          "url": "https://marveldbg.files.wordpress.com/2019/09/captain-britain-02.jpg",
          "team": "Illuminati",
          "class": "Strength, Covert",
          "cost": 5,
          "attack": 2,
          "recruit": 0,
          "text": "Patrol the Rooftops: If it's empty, reveal the top two cards of your deck. If they have different team icons, draw them. Otherwise put them back in any order."
        },
        {
          "name": "Combined Strength",
          "url": "https://marveldbg.files.wordpress.com/2019/09/captain-britain-03.jpg",
          "team": "Illuminati",
          "class": "Strength",
          "cost": 4,
          "attack": 0,
          "recruit": 0,
          "text": "You get +1 Strike for each different team icon among your Heroes."
        },
        {
          "name": "Transtlantic Savior",
          "url": "https://marveldbg.files.wordpress.com/2019/09/captain-britain-04.jpg",
          "team": "Illuminati",
          "class": "Covert",
          "cost": 3,
          "attack": 0,
          "recruit": 0,
          "text": "You get +1 Recruit for each different team icon among your Heroes."
        }
      ]
    },
    {
      "Corvus Glaive": [
        {
          "name": "Atom-Splitting Glaive",
          "url": "https://marveldbg.files.wordpress.com/2019/09/corvus-glaive-01.jpg",
          "team": "Cabal",
          "class": "Tech",
          "cost": 8,
          "attack": 6,
          "recruit": 0,
          "text": "Cabal: You may KO a Bystander from the Escape Pile and from each player's Victory Pile. You get +1 Strike for each Bystander KO'd this way."
        },
        {
          "name": "Rictus Grin",
          "url": "https://marveldbg.files.wordpress.com/2019/09/corvus-glaive-02.jpg",
          "team": "Cabal",
          "class": "Strength",
          "cost": 6,
          "attack": 3,
          "recruit": 0,
          "text": "Cabal: KO a Bystander from the Bystander Stack. Then, you get +1 Strike for every four Bystanders in the KO pile."
        },
        {
          "name": "Culling Blade",
          "url": "https://marveldbg.files.wordpress.com/2019/09/corvus-glaive-03.jpg",
          "team": "Cabal",
          "class": "Instinct",
          "cost": 3,
          "attack": 2,
          "recruit": 0,
          "text": "KO a Bystander from the Bystander Deck. If it's a Special Bystander, you may uset its Rescue effect."
        },
        {
          "name": "Let None Escape You",
          "url": "https://marveldbg.files.wordpress.com/2019/09/corvus-glaive-04.jpg",
          "team": "Cabal",
          "class": "Strength, Instinct",
          "cost": 2,
          "attack": 0,
          "recruit": 0,
          "text": "Patrol the Escape Pile: If there are Bystander in it, you get +2 Strike. Otherwise, you get +2 Recruit."
        }
      ]
    },
    {
      "Dr. Punisher the Soldier Supreme": [
        {
          "name": "Calm Before the Storm",
          "url": "https://marveldbg.files.wordpress.com/2019/09/dr-punisher-soldier-supreme-01.jpg",
          "team": "Marvel Knights",
          "class": "Ranged",
          "cost": 7,
          "attack": 5,
          "recruit": 0,
          "text": "Patrol every city space: For each space that's empty, you get +1 Strike."
        },
        {
          "name": "Ice Magic",
          "url": "https://marveldbg.files.wordpress.com/2019/09/dr-punisher-soldier-supreme-02.jpg",
          "team": "Cabal",
          "class": "Ranged",
          "cost": 3,
          "attack": 2,
          "recruit": 0,
          "text": "Reveal the top card of the Villain Deck. If it's a Villain, you may fight it this turn. Ranged Ranged: You get +Strike equal to that Villain's printed Red Circle."
        },
        {
          "name": "You're a Slow Learner",
          "url": "https://marveldbg.files.wordpress.com/2019/09/dr-punisher-soldier-supreme-03.jpg",
          "team": "Cabal",
          "class": "Tech",
          "cost": 4,
          "attack": 2,
          "recruit": 0,
          "text": "Tech: Reveal the top card of your deck. If it costs 0, KO it and you get +1 Strike."
        },
        {
          "name": "Sweep the Streets of Trash",
          "url": "https://marveldbg.files.wordpress.com/2019/09/dr-punisher-soldier-supreme-04.jpg",
          "team": "Cabal",
          "class": "Tech, Ranged",
          "cost": 2,
          "attack": 0,
          "recruit": 1,
          "text": "Patrol the Streets: If it's empty, draw a card."
        }
      ]
    },
    {
      "Else Bloodstone": [
        {
          "name": "Prodigy of Ulysses Bloodstone",
          "url": "https://marveldbg.files.wordpress.com/2019/09/elsa-bloodstone-01.jpg",
          "team": "Shield",
          "class": "Strength",
          "cost": 8,
          "attack": 6,
          "recruit": 0,
          "text": "Spectrum: You get +3 Strike."
        },
        {
          "name": "Defend the S.H.I.E.L.D. Wall",
          "url": "https://marveldbg.files.wordpress.com/2019/09/elsa-bloodstone-02.jpg",
          "team": "Shield",
          "class": "Ranged",
          "cost": 6,
          "attack": 0,
          "recruit": 0,
          "text": "Wall-Crawl. You get +1 Strike for each other Shield Hero you played this turn."
        },
        {
          "name": "Bloodstone Pendant",
          "url": "https://marveldbg.files.wordpress.com/2019/09/elsa-bloodstone-03.jpg",
          "team": "Shield",
          "class": "Instinct",
          "cost": 5,
          "attack": 0,
          "recruit": 2,
          "text": "Spectrum: You may KO a card from your hand or discard pile. If you do, you get +1 Recruit."
        },
        {
          "name": "Monster Hunter",
          "url": "https://marveldbg.files.wordpress.com/2019/09/elsa-bloodstone-04.jpg",
          "team": "Shield",
          "class": "Covert, Tech",
          "cost": 3,
          "attack": 2,
          "recruit": 0,
          "text": "Patrol the Sewers: If it's empty, rescue a Bystander."
        }
      ]
    },
    {
      "Phoenix Force Cyclops": [
        {
          "name": "Destruction is Creation",
          "url": "https://marveldbg.files.wordpress.com/2019/09/phoenix-force-cyclops-01.jpg",
          "team": "X-Men",
          "class": "Ranged",
          "cost": 8,
          "attack": 4,
          "recruit": 0,
          "text": "KO up to three cards from your hand. Draw that many cards."
        },
        {
          "name": "Rise From the Ashes",
          "url": "https://marveldbg.files.wordpress.com/2019/09/phoenix-force-cyclops-02.jpg",
          "team": "X-Men",
          "class": "Instinct, Ranged",
          "cost": 6,
          "attack": 3,
          "recruit": 0,
          "text": "Gain a Hero that was KO'd this turn."
        },
        {
          "name": "Burn Out",
          "url": "https://marveldbg.files.wordpress.com/2019/09/phoenix-force-cyclops-03.jpg",
          "team": "X-Men",
          "class": "Ranged",
          "cost": 4,
          "attack": 2,
          "recruit": 0,
          "text": "You may KO this card. If you do, you get +2 Strike."
        },
        {
          "name": "Reincarnate",
          "url": "https://marveldbg.files.wordpress.com/2019/09/phoenix-force-cyclops-04.jpg",
          "team": "X-Men",
          "class": "Covert",
          "cost": 3,
          "attack": 2,
          "recruit": 0,
          "text": "KO this card. Gain a Hero from the Shield Officer stack or HQ that costs 4 or less and put it into your hand."
        }
      ]
    },
    {
      "Ruby Summers": [
        {
          "name": "Extinction Blast",
          "url": "https://marveldbg.files.wordpress.com/2019/09/ruby-summers-01.jpg",
          "team": "X-Men",
          "class": "Ranged",
          "cost": 8,
          "attack": 10,
          "recruit": 0,
          "text": "To play this card, you must discard three cards from your hand."
        },
        {
          "name": "Form of Solid Ruby",
          "url": "https://marveldbg.files.wordpress.com/2019/09/ruby-summers-02.jpg",
          "team": "X-Men",
          "class": "Strength",
          "cost": 6,
          "attack": 4,
          "recruit": 0,
          "text": "X-Men: Whenever you defeat a Villain or Mastermind this turn, you get +2 Recruit."
        },
        {
          "name": "Guerrilla Warfare",
          "url": "https://marveldbg.files.wordpress.com/2019/09/ruby-summers-03.jpg",
          "team": "X-Men",
          "class": "Ranged",
          "cost": 3,
          "attack": 2,
          "recruit": 0,
          "text": "When a card effect causes you to discard this card, if it is your turn, Teleport it instead. If it is not your turn, set it aside and add it to your hand at the end of this turn."
        },
        {
          "name": "Heir to Legends",
          "url": "https://marveldbg.files.wordpress.com/2019/09/ruby-summers-04.jpg",
          "team": "X-Men",
          "class": "Strength, Ranged",
          "cost": 5,
          "attack": 2,
          "recruit": 2,
          "text": "To play this card, you must discard a card from your hand."
        }
      ]
    },
    {
      "Shang-Chi": [
        {
          "name": "Muscle Memory",
          "url": "https://marveldbg.files.wordpress.com/2019/09/shang-chi-01.jpg",
          "team": "Marvel Knights",
          "class": "Instinct",
          "cost": 7,
          "attack": 5,
          "recruit": 0,
          "text": "Wall-Crawl. Any time you are shuffling your deck with this card in it, you may set this card aside and put it on top of your deck at the end of the shuffle."
        },
        {
          "name": "Seek the Empty Mind",
          "url": "https://marveldbg.files.wordpress.com/2019/09/shang-chi-02.jpg",
          "team": "Marvel Knights",
          "class": "Covert",
          "cost": 5,
          "attack": 3,
          "recruit": 0,
          "text": "Patrol your discard pile: if it's empty, you get +2 Strike."
        },
        {
          "name": "Shuffling Footwork",
          "url": "https://marveldbg.files.wordpress.com/2019/09/shang-chi-03.jpg",
          "team": "Marvel Knights",
          "class": "Instinct",
          "cost": 3,
          "attack": 0,
          "recruit": 2,
          "text": "Instinct: You may shuffle your discard pile into your deck."
        },
        {
          "name": "Acrobatic Kung-Fu",
          "url": "https://marveldbg.files.wordpress.com/2019/09/shang-chi-04.jpg",
          "team": "Marvel Knights",
          "class": "Instinct, Covert",
          "cost": 4,
          "attack": 2,
          "recruit": 0,
          "text": "Wall-Crawl. Patrol the Rooftops: If it's empty, you get +1 Strike."
        }
      ]
    },
    {
      "Silk": [
        {
          "name": "Borrowed Cloaking Device",
          "url": "https://marveldbg.files.wordpress.com/2019/09/silk-01.jpg",
          "team": "Spider Friends",
          "class": "Tech",
          "cost": 2,
          "attack": 1,
          "recruit": 0,
          "text": "Wall-Crawl. Spectrum: Reveal the top four cards of your deck. Put any combination of those cards with a total cost of 2 or less into your hand. Put the rest back in any order."
        },
        {
          "name": "Silk Stalking",
          "url": "https://marveldbg.files.wordpress.com/2019/09/silk-02.jpg",
          "team": "Spider Friends",
          "class": "Covert",
          "cost": 2,
          "attack": 1,
          "recruit": 0,
          "text": "Spider Friends: Reveal the top card of your deck. If it costs 0, KO it. If it costs 1 or 2, draw it."
        },
        {
          "name": "Cascading Maneuver",
          "url": "https://marveldbg.files.wordpress.com/2019/09/silk-03.jpg",
          "team": "Spider Friends",
          "class": "Strength, Instinct",
          "cost": 2,
          "attack": 1,
          "recruit": 0,
          "text": "Wall-Crawl. Spectrum: Draw a card."
        },
        {
          "name": "Long-Range Spider-Sense",
          "url": "https://marveldbg.files.wordpress.com/2019/09/silk-04.jpg",
          "team": "Spider Friends",
          "class": "Ranged",
          "cost": 2,
          "attack": 2,
          "recruit": 0,
          "text": "Spectrum: Reveal the top card of your deck. If it costs 2 or less, draw it."
        }
      ]
    },
    {
      "Soulsword Colossus": [
        {
          "name": "Rescue My Family From Hell",
          "url": "https://marveldbg.files.wordpress.com/2019/09/soulsword-colossus-01.jpg",
          "team": "X-Men",
          "class": "Instinct",
          "cost": 7,
          "attack": 5,
          "recruit": 0,
          "text": "X-Men: You may gain an X-Men Hero from the HQ or the KO pile to your hand."
        },
        {
          "name": "Possessed by the Soulsword",
          "url": "https://marveldbg.files.wordpress.com/2019/09/soulsword-colossus-02.jpg",
          "team": "X-Men",
          "class": "Strength",
          "cost": 6,
          "attack": 3,
          "recruit": 0,
          "text": "Strength: Cross-Dimensional Colossus Rampage. You get +2 Strike if at least one other player didn't reveal a Colossus card."
        },
        {
          "name": "Invade the Inferno",
          "url": "https://marveldbg.files.wordpress.com/2019/09/soulsword-colossus-03.jpg",
          "team": "X-Men",
          "class": "Covert",
          "cost": 3,
          "attack": 0,
          "recruit": 2,
          "text": "Covert: Once this turn, you may fight the top card of the Bystander Stack as if it were a 3 Strike Demon Villain with Fight: KO one of your Heroes."
        },
        {
          "name": "Steel Interception",
          "url": "https://marveldbg.files.wordpress.com/2019/09/soulsword-colossus-04.jpg",
          "team": "X-Men",
          "class": "Strength, Covert",
          "cost": 4,
          "attack": 2,
          "recruit": 0,
          "text": "If a player would gain a Wound, you may discard this card instead. If you do, draw two cards."
        }
      ]
    },
    {
      "Spider-Gwen": [
        {
          "name": "Intertwining Webs",
          "url": "https://marveldbg.files.wordpress.com/2019/09/spider-gwen-01.jpg",
          "team": "Spider Friends",
          "class": "Covert",
          "cost": 2,
          "attack": 0,
          "recruit": 0,
          "text": "Wall-Crawl. Reveal the top three cards of your deck, then put them back in any order. You get +1 Strike for each card you revealed that costs 2 or less."
        },
        {
          "name": "First Adventure",
          "url": "https://marveldbg.files.wordpress.com/2019/09/spider-gwen-02.jpg",
          "team": "Spider Friends",
          "class": "Strength",
          "cost": 2,
          "attack": 1,
          "recruit": 0,
          "text": "Wall-Crawl. Patrol the Bank: If it's empty, you get +1 Strike. Patrol your Victory Pile: if it's empty, you get +1 Strike."
        },
        {
          "name": "Fateful Bridge",
          "url": "https://marveldbg.files.wordpress.com/2019/09/spider-gwen-03.jpg",
          "team": "Spider Friends",
          "class": "Instinct, Tech",
          "cost": 2,
          "attack": 2,
          "recruit": 0,
          "text": "Patrol the Bridge: If it's empty, reveal the top card of your deck. If that card costs 2 or less, draw it."
        },
        {
          "name": "Save the Day",
          "url": "https://marveldbg.files.wordpress.com/2019/09/spider-gwen-04.jpg",
          "team": "Spider Friends",
          "class": "Tech",
          "cost": 2,
          "attack": 1,
          "recruit": 0,
          "text": "Patrol the Rooftops: If it's empty, rescue a Bystander, and then you get +1 Strike for every two Bystander in your Victory Pile."
        }
      ]
    },
    {
      "Time-Traveling Jean Grey": [
        {
          "name": "Change History",
          "url": "https://marveldbg.files.wordpress.com/2019/09/time-traveling-jean-grey-01.jpg",
          "team": "X-Men",
          "class": "Covert",
          "cost": 7,
          "attack": 5,
          "recruit": 0,
          "text": "X-Men: Patrol any city space: If it's empty, gain the Hero in the HQ space under it. Put that Hero on top of your deck."
        },
        {
          "name": "Telekenesis",
          "url": "https://marveldbg.files.wordpress.com/2019/09/time-traveling-jean-grey-02.jpg",
          "team": "X-Men",
          "class": "Covert, Ranged",
          "cost": 5,
          "attack": 3,
          "recruit": 0,
          "text": "You may move a Villain to an adjacent city space. If another Villain is aready there, swap them."
        },
        {
          "name": "Throw Over the Railing",
          "url": "https://marveldbg.files.wordpress.com/2019/09/time-traveling-jean-grey-03.jpg",
          "team": "X-Men",
          "class": "Covert",
          "cost": 3,
          "attack": 2,
          "recruit": 0,
          "text": "Covert: Choose a Villain on the Rooftops or Bridge. It gets -2 Strike this turn."
        },
        {
          "name": "Bridge to a Better Future",
          "url": "https://marveldbg.files.wordpress.com/2019/09/time-traveling-jean-grey-04.jpg",
          "team": "X-Men",
          "class": "Instinct",
          "cost": 4,
          "attack": 0,
          "recruit": 0,
          "text": "Patrol the Bridge:  If it's empty, then when you draw a new hand of cards at the end of this turn, draw an extra card."
        }
      ]
    }
  ]
}