{
    "decks" : [
        {
            "index": "Deck",
            "view": "PILE",
            "ordered": true,
            "hidden": true,
            "remote": false,
            "cards": [
                "HollowKnight/tarot"
            ]
        },
        {
            "index": "Hand",
            "view": "HAND",
            "ordered": true,
            "hidden": false,
            "remote": false,
            "cards" : []
        },
        {
            "index": "Trick",
            "view": "HAND",
            "ordered": true,
            "hidden": false,
            "remote": true,
            "cards": []
        }
    ]
}
